…
``` r
Ls_boro = payroll_df %>%
  group_by(work_location_borough, leave_status) %>%
  summarise(
    count = n())
```

    ## `summarise()` has grouped output by 'work_location_borough'. You can override
    ## using the `.groups` argument.

``` r
Ls_boro
```

    ## # A tibble: 57 × 3
    ## # Groups:   work_location_borough [17]
    ##    work_location_borough leave_status        count
    ##    <chr>                 <chr>               <int>
    ##  1 ALBANY                ACTIVE                  9
    ##  2 ALBANY                CEASED                  4
    ##  3 ALBANY                ON SEPARATION LEAVE     1
    ##  4 BRONX                 ACTIVE              22504
    ##  5 BRONX                 CEASED               3617
    ##  6 BRONX                 ON LEAVE              590
    ##  7 BRONX                 ON SEPARATION LEAVE   109
    ##  8 BRONX                 SEASONAL              787
    ##  9 BROOKLYN              ACTIVE              40755
    ## 10 BROOKLYN              CEASED               7994
    ## # … with 47 more rows
…
